class ICC {

   ICC(){

   print("In ICC con");
}
 }

 class BCCI extends ICC {

    BCCI(){

  print("IN BCCI con");
}


}

class IPL extends BCCI {

 Ipl(){


  print("IN IPL con");
}

}

void main(){

 IPL obj = new IPL ();

 }