class Parent {
 Parent(){
 print("IN p con");
}
}

 class Child1 extends Parent {
  Child1(){
  print("IN c1 con");
}
}


 class Child2 extends Parent {
    Child2(){
    print("In c2 con");

}

}

 void main(){

  Parent obj1 = new Parent ();
  Child1 obj = new Child1();
  Child2 obj2 = new Child2();

}
